"","lengte","kinderen","inkomen","schoenmaat","maanduitgaven","vrijetijd","groep"
"1",157.623174779771,5,21.8819487210904,33,0.683810897534076,5,"Europeaan"
"2",171.770275021025,5,33.731481350214,39,1.05410879219419,5,"Europeaan"
"3",155.385087514491,1,17.1746941186702,44,2.14683676483378,9,"Europeaan"
"4",140.409611293593,5,25.7438335549261,34,0.804494798591439,5,"Europeaan"
"5",203.695886907475,4,19.5086639316368,39,0.750333228139876,6,"Europeaan"
"6",141.025661669815,1,24.6117198218351,41,3.07646497772939,9,"Europeaan"
"7",143.649269323642,4,18.2079201152048,35,0.700304619815569,6,"Europeaan"
"8",189.379278181385,5,27.1898563924702,37,0.849683012264693,5,"Europeaan"
"9",139.392190674182,5,17.992494366203,36,0.562265448943843,5,"Europeaan"
"10",186.291455848774,-2,7.8372876124254,42,-0.78372876124254,12,"Europeaan"
"11",155.2997951464,3,10.5593600860577,39,0.527968004302886,7,"Europeaan"
"12",187.417523547154,3,44.8281914119869,41,2.24140957059935,7,"Europeaan"
"13",174.700306558033,1,22.4756738958798,39,2.80945923698497,9,"Europeaan"
"14",145.355562132463,2,20.3117368604621,41,1.45083834717586,8,"Europeaan"
"15",128.907132774109,-5,11.1298361251917,42,-0.397494147328276,15,"Europeaan"
"16",159.240267045215,6,20.4356686387126,40,0.53778075365033,4,"Europeaan"
"17",134.096404683941,6,10.9119031533283,42,0.287155346140218,4,"Europeaan"
"18",139.161101209595,0,13.0393742573739,39,6.51968712868695,10,"Europeaan"
"19",139.651798516312,5,24.9441281103203,38,0.779504003447508,5,"Europeaan"
"20",166.09725817319,5,26.4187453360565,39,0.825585791751767,5,"Europeaan"
"21",110.084382389418,10,14.0891384326223,37,0.227244168268102,0,"Europeaan"
"22",169.993741847367,3,30.5026278216804,37,1.52513139108402,7,"Europeaan"
"23",176.007843414362,7,20.0947809264056,40,0.456699566509218,3,"Europeaan"
"24",173.27773586093,-3,21.7230703677474,31,-1.35769189798421,13,"Europeaan"
"25",159.860013802226,0,34.4785667694678,39,17.2392833847339,10,"Europeaan"
"26",143.27116092473,6,2.74161781538365,37,0.0721478372469381,4,"Europeaan"
"27",178.737814666648,6,12.7760975335027,43,0.336213092986913,4,"Europeaan"
"28",148.230760576697,-2,12.7483982718835,38,-1.27483982718835,12,"Europeaan"
"29",175.63847725378,4,32.7848983129713,36,1.26095762742197,6,"Europeaan"
"30",187.591375690924,3,19.386797256697,39,0.969339862834848,7,"Europeaan"
"31",165.795838100742,2,11.178639934686,38,0.798474281048999,8,"Europeaan"
"32",150.359046084192,4,39.3257275652466,39,1.51252798327872,6,"Europeaan"
"33",155.45819432691,6,17.1352542698597,33,0.450927743943676,4,"Europeaan"
"34",144.114785872371,2,24.3802136017814,38,1.74144382869867,8,"Europeaan"
"35",115.02006160989,-2,30.8775581765438,38,-3.08775581765438,12,"Europeaan"
"36",150.149664243775,7,4.9083234207641,39,0.111552805017366,3,"Europeaan"
"37",148.987849497334,3,42.8543414214965,38,2.14271707107482,7,"Europeaan"
"38",177.986053756662,4,26.3352524857673,39,1.01289432637566,6,"Europeaan"
"39",164.868128126427,5,28.2426221209042,41,0.882581941278255,5,"Europeaan"
"40",168.241918650994,3,13.6657004280516,39,0.68328502140258,7,"Europeaan"
"41",179.661873425405,0,0.859569563788273,40,0.429784781894137,10,"Europeaan"
"42",155.596682320799,2,6.9721225282917,40,0.498008752020836,8,"Europeaan"
"43",145.971487597779,2,-2.46760821683314,40,-0.176257729773796,8,"Europeaan"
"44",174.57212153055,7,9.74144202519567,41,0.221396409663538,3,"Europeaan"
"45",166.063609245621,2,34.9779604392836,35,2.49842574566311,8,"Europeaan"
"46",178.866296697289,0,34.4347274186626,41,17.2173637093313,10,"Europeaan"
"47",124.344364120465,5,12.0228167014554,40,0.37571302192048,5,"Europeaan"
"48",159.219545815321,1,23.3705393053499,32,2.92131741316874,9,"Europeaan"
"49",182.567787922954,1,22.9166731809649,40,2.86458414762061,9,"Europeaan"
"50",193.482434754918,2,8.49183954806338,29,0.606559967718813,8,"Europeaan"
"51",179.394680623908,2,22.1552481609326,42,1.5825177257809,8,"Europeaan"
"52",162.462791625384,6,17.485041619323,33,0.460132674192709,4,"Europeaan"
"53",148.762312379354,-4,35.2384241316038,48,-1.60174655143653,14,"Europeaan"
"54",184.876969605787,5,24.3012087182279,32,0.759412772444621,5,"Europeaan"
"55",181.997041755429,2,22.0200181395683,34,1.57285843854059,8,"Europeaan"
"56",158.190250541354,5,28.0310158355309,33,0.875969244860342,5,"Europeaan"
"57",169.67225337583,0,21.2303613235472,42,10.6151806617736,10,"Europeaan"
"58",168.771091971351,6,15.3044723554298,43,0.402749272511309,4,"Europeaan"
"59",164.140851381354,5,37.4126735062501,36,1.16914604707032,5,"Europeaan"
"60",139.47539799626,6,12.1315190744541,32,0.319250501959319,4,"Europeaan"
"61",193.408889514046,0,16.6559492516254,37,8.3279746258127,10,"Europeaan"
"62",163.995967752201,1,9.08992437769901,40,1.13624054721238,9,"Europeaan"
"63",157.854649847768,5,47.0892779138105,39,1.47153993480658,5,"Europeaan"
"64",132.001980027091,4,35.7651236183221,36,1.37558167762777,6,"Europeaan"
"65",122.808848526385,3,28.6675315834652,34,1.43337657917326,7,"Europeaan"
"66",152.319394600334,3,25.0869569766983,41,1.25434784883492,7,"Europeaan"
"67",142.7806164749,5,-0.712537647752423,36,-0.0222668014922632,5,"Europeaan"
"68",146.514560294163,8,17.77384599061,38,0.3554769198122,2,"Europeaan"
"69",162.389125939672,0,7.88502755439973,40,3.94251377719987,10,"Europeaan"
"70",143.443359753988,6,30.396570124397,41,0.799909740115711,4,"Europeaan"
"71",191.048569130545,3,20.3196884231494,41,1.01598442115747,7,"Europeaan"
"72",174.197576156656,2,8.14716774974993,45,0.581940553553567,8,"Europeaan"
"73",171.914478010312,3,47.2374853586593,35,2.36187426793297,7,"Europeaan"
"74",141.192943624769,4,10.2534295891416,37,0.394362676505447,6,"Europeaan"
"75",161.51599550659,2,28.7788516658527,41,2.05563226184662,8,"Europeaan"
"76",204.472502012118,4,10.3136047429832,42,0.396677105499354,6,"Europeaan"
"77",192.831308815115,0,18.7633682809984,38,9.38168414049921,10,"Europeaan"
"78",168.867983658923,4,17.2800408358769,43,0.664616955226036,6,"Europeaan"
"79",147.982855686136,-1,5.99020551389378,41,-1.49755137847345,11,"Europeaan"
"80",179.542017554885,6,26.1499868131329,39,0.688157547714022,4,"Europeaan"
"81",166.07701809014,-3,21.062052183575,37,-1.31637826147344,13,"Europeaan"
"82",177.917604659734,8,23.9015021025547,39,0.478030042051094,2,"Europeaan"
"83",175.417729671637,0,9.44006662294695,41,4.72003331147347,10,"Europeaan"
"84",142.167176050266,5,50.616512670145,38,1.58176602094203,5,"Europeaan"
"85",128.124765572082,1,16.6186935564463,37,2.07733669455579,9,"Europeaan"
"86",158.947289787346,0,31.630162062475,44,15.8150810312375,10,"Europeaan"
"87",183.682067821216,3,17.1291785122647,35,0.856458925613237,7,"Europeaan"
"88",180.575800768908,3,29.8408971990564,39,1.49204485995282,7,"Europeaan"
"89",179.955209872046,4,0.553208799820911,42,0.0212772615315735,6,"Europeaan"
"90",132.876961249881,2,20.2817879354339,34,1.44869913824528,8,"Europeaan"
"91",171.272338718996,-5,24.3654710616273,39,-0.870195395058119,15,"Europeaan"
"92",208.046761535813,-2,24.3296496027158,40,-2.43296496027158,12,"Europeaan"
"93",140.925957398034,5,28.0865076719551,44,0.877703364748596,5,"Europeaan"
"94",129.994482992764,0,19.0130686382999,39,9.50653431914997,10,"Europeaan"
"95",178.057668754799,1,42.0902690583731,40,5.26128363229664,9,"Europeaan"
"96",181.839871968465,0,15.4233372238007,38,7.71166861190035,10,"Europeaan"
"97",239.114780382811,2,23.6090094331653,37,1.68635781665467,8,"Europeaan"
"98",152.826829489234,1,12.1223817072903,32,1.51529771341129,9,"Europeaan"
"99",159.044147042813,3,14.4320939866636,37,0.721604699333178,7,"Europeaan"
"100",149.764063266579,0,-6.06273296506822,37,-3.03136648253411,10,"Europeaan"
"101",139.732401373106,1,7.1499529269808,38,0.8937441158726,9,"Chinees"
"102",137.725479803583,0,0.478208640380744,41,0.239104320190372,10,"Chinees"
"103",151.153280047262,0,3.48277107901251,42,1.74138553950625,10,"Chinees"
"104",125.051770570134,0,2.39555796990491,38,1.19777898495246,10,"Chinees"
"105",122.536325594998,0,5.35974241781551,36,2.67987120890776,10,"Chinees"
"106",133.199080360254,1,-0.258702111702599,39,-0.0323377639628248,9,"Chinees"
"107",126.084864524308,1,-1.38098505910675,37,-0.172623132388344,9,"Chinees"
"108",121.365695512368,1,4.88424255352412,39,0.610530319190515,9,"Chinees"
"109",91.8974411753541,1,6.61334379832134,41,0.826667974790168,9,"Chinees"
"110",133.658288799785,1,2.40500802462711,39,0.300626003078388,9,"Chinees"
"111",128.707977880793,0,0.996457879219096,37,0.498228939609548,10,"Chinees"
"112",117.7836039563,1,8.27614842595828,31,1.03451855324478,9,"Chinees"
"113",139.398385330459,1,6.60462341310394,31,0.825577926637992,9,"Chinees"
"114",161.70224543131,0,1.50419928297194,31,0.752099641485969,10,"Chinees"
"115",147.430566852629,1,9.04888981825514,36,1.13111122728189,9,"Chinees"
"116",113.640565972944,1,7.6345135308645,40,0.954314191358063,9,"Chinees"
"117",119.505742237191,0,3.3038306379559,36,1.65191531897795,10,"Chinees"
"118",122.084982409965,1,5.3582471304268,40,0.66978089130335,9,"Chinees"
"119",136.334524235002,1,0.329002777148946,37,0.0411253471436183,9,"Chinees"
"120",128.614736514753,0,4.95136670805365,36,2.47568335402683,10,"Chinees"
"121",101.516961797596,0,-0.215107291350112,31,-0.107553645675056,10,"Chinees"
"122",130.645370782442,1,3.31554245923938,37,0.414442807404923,9,"Chinees"
"123",137.806269466267,0,2.2910571371006,35,1.1455285685503,10,"Chinees"
"124",132.135242562789,0,9.77944654468122,38,4.88972327234061,10,"Chinees"
"125",115.627508410878,0,7.91565634146926,36,3.95782817073463,10,"Chinees"
"126",107.957505203168,0,-7.19325315701602,38,-3.59662657850801,10,"Chinees"
"127",161.898188125985,0,2.40309330580104,32,1.20154665290052,10,"Chinees"
"128",160.312448090383,0,11.8799882538889,42,5.93999412694446,10,"Chinees"
"129",128.48584421609,0,2.01310783609093,30,1.00655391804547,10,"Chinees"
"130",145.256286068734,0,1.72661009833828,38,0.863305049169139,10,"Chinees"
"131",119.28747081197,0,19.2403194601335,41,9.62015973006673,10,"Chinees"
"132",126.286935581519,1,7.47915863693466,35,0.934894829616833,9,"Chinees"
"133",132.644606654048,1,11.3281935787197,34,1.41602419733997,9,"Chinees"
"134",145.870813113454,0,3.00166684568058,34,1.50083342284029,10,"Chinees"
"135",129.729995041774,0,4.29590738441432,40,2.14795369220716,10,"Chinees"
"136",132.94946110239,1,5.87948113580869,36,0.734935141976086,9,"Chinees"
"137",122.045215575882,1,6.69780903704245,39,0.837226129630307,9,"Chinees"
"138",149.501120335379,0,6.5443149246468,34,3.2721574623234,10,"Chinees"
"139",137.26323454727,0,9.52289787092844,34,4.76144893546422,10,"Chinees"
"140",130.801002641436,1,5.71908440634388,39,0.714885550792985,9,"Chinees"
"141",110.83101047108,1,0.717216832465345,31,0.0896521040581681,9,"Chinees"
"142",122.120320671899,1,6.55821351684726,39,0.819776689605907,9,"Chinees"
"143",145.551305603414,0,2.90130243520559,36,1.4506512176028,10,"Chinees"
"144",108.813351659486,0,3.90493493000746,41,1.95246746500373,10,"Chinees"
"145",124.788702155142,1,6.7146939221825,35,0.839336740272812,9,"Chinees"
"146",137.693003609329,1,9.50458608424795,36,1.18807326053099,9,"Chinees"
"147",150.203273015915,1,-2.34371886267678,39,-0.292964857834598,9,"Chinees"
"148",115.788950474314,0,5.93606727288315,38,2.96803363644157,10,"Chinees"
"149",139.937085915447,1,7.58441389847216,30,0.94805173730902,9,"Chinees"
"150",113.631254662837,0,-1.30383477614458,38,-0.651917388072288,10,"Chinees"
"151",130.411694918414,1,3.16731631918303,38,0.395914539897878,9,"Chinees"
"152",121.901009845232,1,9.19782895758405,36,1.14972861969801,9,"Chinees"
"153",108.517973850003,0,9.38223465653278,32,4.69111732826639,10,"Chinees"
"154",119.143785976484,0,10.1683867858445,36,5.08419339292224,10,"Chinees"
"155",135.482608640439,1,3.99254223070653,35,0.499067778838316,9,"Chinees"
"156",124.544639407208,0,12.3821813063959,36,6.19109065319797,10,"Chinees"
"157",121.27601751069,0,5.03139132937502,33,2.51569566468751,10,"Chinees"
"158",138.501934773118,0,-2.09568861785718,34,-1.04784430892859,10,"Chinees"
"159",154.521664003288,0,10.6024345726739,42,5.30121728633696,10,"Chinees"
"160",139.844073895019,1,0.351931267238029,36,0.0439914084047537,9,"Chinees"
"161",133.163490825956,0,0.684962491534036,34,0.342481245767018,10,"Chinees"
"162",148.160071315298,1,3.10301291709569,38,0.387876614636962,9,"Chinees"
"163",151.438904612433,1,1.86252820606443,40,0.232816025758053,9,"Chinees"
"164",125.371400875677,0,-0.528990107743496,36,-0.264495053871748,10,"Chinees"
"165",125.995365369151,1,4.90197489799203,39,0.612746862249004,9,"Chinees"
"166",112.667858105966,0,4.82124675935254,39,2.41062337967627,10,"Chinees"
"167",122.822196443083,1,13.7162868157453,45,1.71453585196817,9,"Chinees"
"168",138.366539626143,1,4.84631639200065,39,0.605789549000081,9,"Chinees"
"169",133.529719409458,1,7.94344085501678,40,0.992930106877097,9,"Chinees"
"170",148.142636464812,1,6.56584465452448,37,0.82073058181556,9,"Chinees"
"171",131.944076861557,0,0.219062346818628,38,0.109531173409314,10,"Chinees"
"172",147.648414471876,1,6.32596188024436,38,0.790745235030545,9,"Chinees"
"173",105.417206429719,1,4.12301830646457,37,0.515377288308072,9,"Chinees"
"174",112.798677060353,0,0.952114400558362,37,0.476057200279181,10,"Chinees"
"175",128.29217466026,1,0.585677228238104,37,0.0732096535297629,9,"Chinees"
"176",128.06091066643,1,9.78437530112905,37,1.22304691264113,9,"Chinees"
"177",134.465080305852,1,6.93823059990403,37,0.867278824988004,9,"Chinees"
"178",100.67476273054,0,7.07583941402104,37,3.53791970701052,10,"Chinees"
"179",142.171140404587,0,15.924779454479,38,7.96238972723949,10,"Chinees"
"180",132.571755733858,0,-0.876775472810226,39,-0.438387736405113,10,"Chinees"
"181",124.341993622124,0,3.04700677516452,37,1.52350338758226,10,"Chinees"
"182",131.081141675471,0,6.07111337956635,39,3.03555668978318,10,"Chinees"
"183",123.989420468316,1,5.90543709650925,42,0.738179637063656,9,"Chinees"
"184",116.182895908977,0,5.94558764238769,35,2.97279382119384,10,"Chinees"
"185",97.7632298097473,1,7.30222307799409,39,0.912777884749262,9,"Chinees"
"186",111.728104260052,1,12.1498298828861,44,1.51872873536076,9,"Chinees"
"187",156.467028634604,1,0.771174071038514,37,0.0963967588798142,9,"Chinees"
"188",104.782277710641,1,2.55756730068649,36,0.319695912585812,9,"Chinees"
"189",120.2616134075,1,10.1255529582148,37,1.26569411977685,9,"Chinees"
"190",126.560690882639,0,4.2841524245089,35,2.14207621225445,10,"Chinees"
"191",136.468706691157,0,6.96690955280993,36,3.48345477640496,10,"Chinees"
"192",134.346105056607,1,5.26379009738309,35,0.657973762172886,9,"Chinees"
"193",111.079711647012,1,1.17951601734256,38,0.14743950216782,9,"Chinees"
"194",150.921775736636,0,2.72416923772482,35,1.36208461886241,10,"Chinees"
"195",113.982718760564,0,9.69936841424712,37,4.84968420712356,10,"Chinees"
"196",127.540611389855,1,-4.80196604324047,43,-0.600245755405058,9,"Chinees"
"197",154.205721916972,0,-0.80713318901284,39,-0.40356659450642,10,"Chinees"
"198",139.821654077393,1,5.03412764307056,35,0.62926595538382,9,"Chinees"
"199",144.874951837137,0,4.51065408327856,35,2.25532704163928,10,"Chinees"
"200",134.802243282367,0,2.39517069752209,35,1.19758534876104,10,"Chinees"
"201",113.97669586096,1,-3.3018014406701,43,-0.412725180083762,9,"Chinees"
"202",189.798982325419,-1,74.346089983617,40,-18.5865224959043,11,"Nederlander"
"203",185.747494678742,11,32.5247986455639,39,0.478305862434763,-1,"Nederlander"
"204",191.816890971838,10,22.056657012985,34,0.3557525324675,0,"Nederlander"
"205",193.33217513045,5,30.9732543576213,40,0.967914198675665,5,"Nederlander"
"206",169.772368820091,-4,37.3109361965972,39,-1.69595164529987,14,"Nederlander"
"207",171.688033182237,10,47.5142265481236,44,0.766358492711671,0,"Nederlander"
"208",184.791334869968,12,62.6229775584124,41,0.846256453492059,-2,"Nederlander"
"209",168.984947580661,-2,41.7598518753352,42,-4.17598518753351,12,"Nederlander"
"210",183.415107066789,8,49.9895367721922,40,0.999790735443843,2,"Nederlander"
"211",181.997170354109,3,38.9227727062727,37,1.94613863531364,7,"Nederlander"
"212",191.757440777481,-1,45.6325211063317,38,-11.4081302765829,11,"Nederlander"
"213",177.670325213106,1,58.2503729235375,40,7.28129661544219,9,"Nederlander"
"214",182.155643168091,1,61.118926768632,45,7.639865846079,9,"Nederlander"
"215",179.099363805873,-2,59.4920785927277,38,-5.94920785927277,12,"Nederlander"
"216",175.25722476483,7,21.4891299908468,39,0.48838931797379,3,"Nederlander"
"217",171.982525140856,3,45.0984496878944,43,2.25492248439472,7,"Nederlander"
"218",168.501644025132,8,24.2931954999984,42,0.485863909999968,2,"Nederlander"
"219",183.317966371183,9,55.4537714322528,41,0.990245918433086,1,"Nederlander"
"220",175.01310807144,6,37.304497742532,35,0.981697309014001,4,"Nederlander"
"221",169.737063476738,6,64.9171862026035,34,1.70834700533167,4,"Nederlander"
"222",168.544587357984,3,42.9278607000859,43,2.1463930350043,7,"Nederlander"
"223",182.60361538126,1,28.7212514152018,43,3.59015642690022,9,"Nederlander"
"224",173.409895275808,8,29.8968387122261,39,0.597936774244522,2,"Nederlander"
"225",191.157389716718,0,45.3896575070831,40,22.6948287535415,10,"Nederlander"
"226",177.989621347802,3,14.4021272834226,40,0.720106364171128,7,"Nederlander"
"227",161.097023918208,2,49.0369834495832,39,3.50264167497023,8,"Nederlander"
"228",200.128830377689,2,25.8703980273315,41,1.84788557338082,8,"Nederlander"
"229",183.878261039204,2,56.667430346992,35,4.04767359621372,8,"Nederlander"
"230",182.5630791326,2,63.6249249363118,38,4.54463749545084,8,"Nederlander"
"231",190.870234737364,3,41.2884378880137,43,2.06442189440068,7,"Nederlander"
"232",180.583046460252,-2,-1.69230595438747,40,0.169230595438747,12,"Nederlander"
"233",186.914847106403,7,43.1897698034439,39,0.981585677350997,3,"Nederlander"
"234",174.933297551832,8,42.9140421840007,41,0.858280843680014,2,"Nederlander"
"235",186.515378852937,7,9.1561418966445,39,0.208094134014648,3,"Nederlander"
"236",181.559336646311,9,70.2699094282176,39,1.25481981121817,1,"Nederlander"
"237",166.843140404585,5,70.4935115105188,39,2.20292223470371,5,"Nederlander"
"238",177.031763683078,6,21.9578059771453,40,0.577836999398561,4,"Nederlander"
"239",184.574607989111,6,21.1329868779396,37,0.55613123362999,4,"Nederlander"
"240",194.577817757744,1,31.7491441210394,45,3.96864301512992,9,"Nederlander"
"241",184.132673843937,-5,34.3018806925074,44,-1.22506716758955,15,"Nederlander"
"242",181.75768310277,3,69.576226181961,40,3.47881130909805,7,"Nederlander"
"243",191.174318328771,-3,38.8804740819923,37,-2.43002963012452,13,"Nederlander"
"244",198.236731512636,-2,32.4360465951814,43,-3.24360465951814,12,"Nederlander"
"245",175.767731551262,0,58.7462661014773,44,29.3731330507386,10,"Nederlander"
"246",159.327551494828,4,25.3676209719971,41,0.975677729692198,6,"Nederlander"
"247",190.323324937798,2,44.3888207670767,37,3.17063005479119,8,"Nederlander"
"248",193.684769874985,10,59.8239373668218,34,0.9649022155939,0,"Nederlander"
"249",163.428861372115,6,56.6620000145296,37,1.49110526354025,4,"Nederlander"
"250",171.883318692513,4,13.8778304732382,41,0.533762710509162,6,"Nederlander"
"251",164.668715352487,3,50.3606409314385,40,2.51803204657193,7,"Nederlander"
"252",185.067632716769,7,53.4630718446245,36,1.21506981465056,3,"Nederlander"
"253",156.180441521804,2,34.0448650481065,36,2.43177607486475,8,"Nederlander"
"254",178.294169868756,-2,27.2980370795876,35,-2.72980370795876,12,"Nederlander"
"255",192.838921387117,9,11.0773348896685,42,0.197809551601223,1,"Nederlander"
"256",176.488321428695,-2,31.2945874851788,36,-3.12945874851788,12,"Nederlander"
"257",180.566498771247,3,40.3146637913109,43,2.01573318956555,7,"Nederlander"
"258",164.15322901431,0,71.1013769388792,38,35.5506884694396,10,"Nederlander"
"259",170.220258192226,4,37.1761748424551,40,1.42985287855597,6,"Nederlander"
"260",184.861724874332,3,37.9784309070565,39,1.89892154535283,7,"Nederlander"
"261",178.808152369506,10,25.7275732122191,39,0.414960858261599,0,"Nederlander"
"262",179.331073242476,-1,25.476462416072,40,-6.369115604018,11,"Nederlander"
"263",188.674532560401,1,20.8987789197987,42,2.61234736497484,9,"Nederlander"
"264",185.245073544127,5,39.212764855109,39,1.22539890172216,5,"Nederlander"
"265",195.570492368523,5,29.560911625355,43,0.923778488292344,5,"Nederlander"
"266",185.483498565135,2,41.3260235320332,41,2.95185882371665,8,"Nederlander"
"267",177.968689420565,7,38.7505049499668,41,0.880693294317426,3,"Nederlander"
"268",172.952826614909,6,52.9153320352873,41,1.39250873777072,4,"Nederlander"
"269",186.61028870577,-2,63.9941120146403,40,-6.39941120146403,12,"Nederlander"
"270",184.181288560547,-4,47.3325909326939,39,-2.15148140603154,14,"Nederlander"
"271",192.699410585245,8,28.7968377954425,38,0.575936755908851,2,"Nederlander"
"272",174.207724952992,15,20.2990015218249,40,0.220641320889401,-5,"Nederlander"
"273",183.114254676413,-2,11.0997583193856,42,-1.10997583193856,12,"Nederlander"
"274",197.868532780709,-3,48.8862228694653,41,-3.05538892934158,13,"Nederlander"
"275",199.006938612031,-1,31.2570324724941,39,-7.81425811812354,11,"Nederlander"
"276",186.732617629998,3,31.6807868944675,44,1.58403934472337,7,"Nederlander"
"277",176.064856201952,9,29.7988484999509,44,0.53212229464198,1,"Nederlander"
"278",197.910419448526,1,33.4128082799057,35,4.17660103498821,9,"Nederlander"
"279",179.314666039448,0,24.6805182847122,41,12.3402591423561,10,"Nederlander"
"280",177.850527405961,-2,11.0931484796128,34,-1.10931484796128,12,"Nederlander"
"281",157.438579876621,3,47.5040560518752,40,2.37520280259376,7,"Nederlander"
"282",187.377355354782,15,50.0981792308494,35,0.544545426422276,-5,"Nederlander"
"283",198.879519703535,3,35.0680282020588,44,1.75340141010294,7,"Nederlander"
"284",183.552781270474,2,19.7646111366008,35,1.41175793832863,8,"Nederlander"
"285",189.721468431694,10,18.1111944807854,40,0.292116040012668,0,"Nederlander"
"286",186.82219228616,7,38.5056599349583,35,0.875128634885416,3,"Nederlander"
"287",154.760293792469,9,17.1902047405464,38,0.306967941795471,1,"Nederlander"
"288",178.714244344236,11,24.8862421180709,41,0.36597414879516,-1,"Nederlander"
"289",171.593644206647,-3,34.540679378413,38,-2.15879246115081,13,"Nederlander"
"290",187.789354510651,4,41.6422980492312,40,1.60162684804735,6,"Nederlander"
"291",200.6231426865,-1,32.8155141479362,41,-8.20387853698404,11,"Nederlander"
"292",176.4709489625,6,62.9117444045517,39,1.65557222117241,4,"Nederlander"
"293",177.071791918574,4,46.0969578635445,38,1.77295991782863,6,"Nederlander"
"294",174.40359553482,8,21.5132756081281,39,0.430265512162561,2,"Nederlander"
"295",187.394469909139,1,36.4805747423274,33,4.56007184279093,9,"Nederlander"
"296",174.480537093533,3,33.2949085672472,37,1.66474542836236,7,"Nederlander"
"297",187.47541864493,0,20.3318207130658,41,10.1659103565329,10,"Nederlander"
"298",206.076905159579,6,16.8709554657197,46,0.443972512255782,4,"Nederlander"
"299",174.814945580552,-2,33.4472469895491,38,-3.34472469895491,12,"Nederlander"
"300",185.709131296147,4,0.424715988423316,42,0.0163352303239737,6,"Nederlander"
"301",172.398022954301,2,34.1814499040986,38,2.44153213600704,8,"Nederlander"
"302",180.255093181954,6,59.9062330513916,36,1.57647981714189,4,"Nederlander"
"303",170.27212355364,2,15.9195784499181,37,1.13711274642272,8,"Nederlander"
